{"page":1,"total_results":20042,"total_pages":1003,"results":[{"original_name":"The Big Bang Theory","genre_ids":[35],"name":"The Big Bang Theory","popularity":452.516922,"origin_country":["US"],"vote_count":2790,"first_air_date":"2007-09-24","backdrop_path":"\/nGsNruW3W27V6r4gkyc3iiEGsKR.jpg","original_language":"en","id":1418,"vote_average":6.8,"overview":"The Big Bang Theory is centered on five characters living in Pasadena, California: roommates Leonard Hofstadter and Sheldon Cooper; Penny, a waitress and aspiring actress who lives across the hall; and Leonard and Sheldon's equally geeky and socially awkward friends and co-workers, mechanical engineer Howard Wolowitz and astrophysicist Raj Koothrappali. The geekiness and intellect of the four guys is contrasted for comic effect with Penny's social skills and common sense.","poster_path":"\/ooBGRQBdbGzBxAVfExiO8r7kloA.jpg"},{"original_name":"The Walking Dead","genre_ids":[18,10759,10765],"name":"The Walking Dead","popularity":183.537844,"origin_country":["US"],"vote_count":3231,"first_air_date":"2010-10-31","backdrop_path":"\/xVzvD5BPAU4HpleFSo8QOdHkndo.jpg","original_language":"en","id":1402,"vote_average":7.4,"overview":"Sheriff's deputy Rick Grimes awakens from a coma to find a post-apocalyptic world dominated by flesh-eating zombies. He sets out to find his family and encounters many other survivors along the way.","poster_path":"\/yn7psGTZsHumHOkLUmYpyrIcA2G.jpg"},{"original_name":"Supernatural","genre_ids":[18,9648,10765],"name":"Supernatural","popularity":167.546876,"origin_country":["US"],"vote_count":1336,"first_air_date":"2005-09-13","backdrop_path":"\/o9OKe3M06QMLOzTl3l6GStYtnE9.jpg","original_language":"en","id":1622,"vote_average":7.2,"overview":"When they were boys, Sam and Dean Winchester lost their mother to a mysterious and demonic supernatural force. Subsequently, their father raised them to be soldiers. He taught them about the paranormal evil that lives in the dark corners and on the back roads of America ... and he taught them how to kill it. Now, the Winchester brothers crisscross the country in their '67 Chevy Impala, battling every kind of supernatural threat they encounter along the way. ","poster_path":"\/pui1V389cQft0BVFu9pbsYLEW1Q.jpg"},{"original_name":"烈火如歌","genre_ids":[18],"name":"The Flame's Daughter","popularity":135.190258,"origin_country":["CN"],"vote_count":3,"first_air_date":"2018-03-01","backdrop_path":"\/6ICX5ggFLAPqiV3tXyvSwSpxyoU.jpg","original_language":"zh","id":72603,"vote_average":8,"overview":"The story of Ruge and Zhang Feng whose lives are interchanged after they are switched at birth. They meet and fall in love but their relationship takes a tragic turn due to the machinations of a man hell-bent on revenge.","poster_path":"\/q6IIKegrLH3WiRR34thlxCWDszv.jpg"},{"original_name":"La Mamá del 10","genre_ids":[],"name":"La Mamá del 10","popularity":126.757178,"origin_country":["CO"],"vote_count":1,"first_air_date":"2018-03-01","backdrop_path":null,"original_language":"es","id":77717,"vote_average":7,"overview":"","poster_path":null},{"original_name":"Arrow","genre_ids":[28,12,80,18,9648,878],"name":"Arrow","popularity":116.532171,"origin_country":["US"],"vote_count":1745,"first_air_date":"2012-10-10","backdrop_path":"\/dKxkwAJfGuznW8Hu0mhaDJtna0n.jpg","original_language":"en","id":1412,"vote_average":6,"overview":"Spoiled billionaire playboy Oliver Queen is missing and presumed dead when his yacht is lost at sea. He returns five years later a changed man, determined to clean up the city as a hooded vigilante armed with a bow.","poster_path":"\/mo0FP1GxOFZT4UDde7RFDz5APXF.jpg"},{"original_name":"Mindhunter","genre_ids":[80,18],"name":"Mindhunter","popularity":114.649739,"origin_country":["US"],"vote_count":306,"first_air_date":"2017-10-13","backdrop_path":"\/a906PH7CDmSOdS7kmnAgdWk5mhv.jpg","original_language":"en","id":67744,"vote_average":7.5,"overview":"An agent in the FBI's Elite Serial Crime Unit develops profiling techniques as he pursues notorious serial killers and rapists.","poster_path":"\/r7RIwuceOaDP4KTmU1EFeDniRq4.jpg"},{"original_name":"Grey's Anatomy","genre_ids":[18],"name":"Grey's Anatomy","popularity":113.160691,"origin_country":["US"],"vote_count":643,"first_air_date":"2005-03-27","backdrop_path":"\/y6JABtgWMVYPx84Rvy7tROU5aNH.jpg","original_language":"en","id":1416,"vote_average":6.2,"overview":"Follows the personal and professional lives of a group of doctors at Seattle’s Grey Sloan Memorial Hospital.","poster_path":"\/mgOZSS2FFIGtfVeac1buBw3Cx5w.jpg"},{"original_name":"The Missing","genre_ids":[18,9648],"name":"The Missing","popularity":106.120969,"origin_country":["GB"],"vote_count":90,"first_air_date":"2014-10-28","backdrop_path":"\/2hF2RnjVwHvxfhH2lkB9H9FdQHb.jpg","original_language":"en","id":61555,"vote_average":7.3,"overview":"A gripping anthological relationship thriller series exploring the emotional fallout of a child's abduction not only on the family but on the wider community, told over two time frames.","poster_path":"\/w1FDeOGoFS1qsSRHlj2Jzp2P0e1.jpg"},{"original_name":"Family Guy","genre_ids":[16,35],"name":"Family Guy","popularity":102.88731,"origin_country":["US"],"vote_count":1010,"first_air_date":"1999-01-31","backdrop_path":"\/pH38r4TWTqq7Mcs6XAlwgzNUeJe.jpg","original_language":"en","id":1434,"vote_average":6.6,"overview":"Sick, twisted, politically incorrect and Freakin' Sweet animated series featuring the adventures of the dysfunctional Griffin family. Bumbling Peter and long-suffering Lois have three kids. Stewie (a brilliant but sadistic baby bent on killing his mother and taking over the world), Meg (the oldest, and is the most unpopular girl in town) and Chris (the middle kid, he's not very bright but has a passion for movies). The final member of the family is Brian - a talking dog and much more than a pet, he keeps Stewie in check whilst sipping Martinis and sorting through his own life issues.","poster_path":"\/gBGUL1UTUNmdRQT8gA1LUV4yg39.jpg"},{"original_name":"The Simpsons","genre_ids":[16,35],"name":"The Simpsons","popularity":102.393524,"origin_country":["US"],"vote_count":1442,"first_air_date":"1989-12-17","backdrop_path":"\/f5uNbUC76oowt5mt5J9QlqrIYQ6.jpg","original_language":"en","id":456,"vote_average":7.2,"overview":"Set in Springfield, the average American town, the show focuses on the antics and everyday adventures of the Simpson family; Homer, Marge, Bart, Lisa and Maggie, as well as a virtual cast of thousands. Since the beginning, the series has been a pop culture icon, attracting hundreds of celebrities to guest star. The show has also made name for itself in its fearless satirical take on politics, media and American life in general.","poster_path":"\/yTZQkSsxUFJZJe67IenRM0AEklc.jpg"},{"original_name":"The Flash","genre_ids":[18,10765],"name":"The Flash","popularity":100.537806,"origin_country":["US"],"vote_count":1969,"first_air_date":"2014-10-07","backdrop_path":"\/mmxxEpTqVdwBlu5Pii7tbedBkPC.jpg","original_language":"en","id":60735,"vote_average":6.7,"overview":"After a particle accelerator causes a freak storm, CSI Investigator Barry Allen is struck by lightning and falls into a coma. Months later he awakens with the power of super speed, granting him the ability to move through Central City like an unseen guardian angel. Though initially excited by his newfound powers, Barry is shocked to discover he is not the only \"meta-human\" who was created in the wake of the accelerator explosion -- and not everyone is using their new powers for good. Barry partners with S.T.A.R. Labs and dedicates his life to protect the innocent. For now, only a few close friends and associates know that Barry is literally the fastest man alive, but it won't be long before the world learns what Barry Allen has become...The Flash.","poster_path":"\/lUFK7ElGCk9kVEryDJHICeNdmd1.jpg"},{"original_name":"Gotham","genre_ids":[80,18,14,53],"name":"Gotham","popularity":97.495966,"origin_country":["US"],"vote_count":803,"first_air_date":"2014-09-22","backdrop_path":"\/mKBP1OCgCG0jw8DwVYlnYqVILtc.jpg","original_language":"en","id":60708,"vote_average":6.9,"overview":"Before there was Batman, there was GOTHAM. \n\nEveryone knows the name Commissioner Gordon. He is one of the crime world's greatest foes, a man whose reputation is synonymous with law and order. But what is known of Gordon's story and his rise from rookie detective to Police Commissioner? What did it take to navigate the multiple layers of corruption that secretly ruled Gotham City, the spawning ground of the world's most iconic villains? And what circumstances created them – the larger-than-life personas who would become Catwoman, The Penguin, The Riddler, Two-Face and The Joker? ","poster_path":"\/5tSHzkJ1HBnyGdcpr6wSyw7jYnJ.jpg"},{"original_name":"Marvel's Agents of S.H.I.E.L.D.","genre_ids":[18,10759,10765],"name":"Marvel's Agents of S.H.I.E.L.D.","popularity":96.173906,"origin_country":["US"],"vote_count":986,"first_air_date":"2013-09-24","backdrop_path":"\/qtr5i6hOm6oVzTYl3jOQAYP3oc7.jpg","original_language":"en","id":1403,"vote_average":6.7,"overview":"Agent Phil Coulson of S.H.I.E.L.D. (Strategic Homeland Intervention, Enforcement and Logistics Division) puts together a team of agents to investigate the new, the strange and the unknown around the globe, protecting the ordinary from the extraordinary.","poster_path":"\/xjm6uVktPuKXNILwjLXwVG5d5BU.jpg"},{"original_name":"Breaking Bad","genre_ids":[18],"name":"Breaking Bad","popularity":88.013269,"origin_country":["US"],"vote_count":2462,"first_air_date":"2008-01-19","backdrop_path":"\/bzoZjhbpriBT2N5kwgK0weUfVOX.jpg","original_language":"en","id":1396,"vote_average":8.3,"overview":"When Walter White, a New Mexico chemistry teacher, is diagnosed with Stage III cancer and given a prognosis of only two years left to live, he becomes filled with a sense of fearlessness and an unrelenting desire to secure his family's financial future at any cost as he enters the dangerous world of drugs and crime.","poster_path":"\/1yeVJox3rjo2jBKrrihIMj7uoS9.jpg"},{"original_name":"Once Upon a Time","genre_ids":[18,10765],"name":"Once Upon a Time","popularity":86.672853,"origin_country":["US"],"vote_count":631,"first_air_date":"2011-10-23","backdrop_path":"\/Otzq1sny6BAuvZdAO1EMdUkDUc.jpg","original_language":"en","id":39272,"vote_average":6.4,"overview":"There is a town in Maine where every story book character you've ever known is trapped between two worlds, victims of a powerful curse. Only one knows the truth and only one can break the spell.\n\nEmma Swan is a 28-year-old bail bonds collector who has been supporting herself since she was abandoned as a baby. Things change for her when her son Henry, whom she abandoned years ago, finds her and asks for her help explaining that she is from a different world where she is Snow White's missing daughter.","poster_path":"\/49qD372jeHUTmdNMGJkjCFZdv9y.jpg"},{"original_name":"Homeland","genre_ids":[18],"name":"Homeland","popularity":83.312044,"origin_country":["US"],"vote_count":794,"first_air_date":"2011-10-02","backdrop_path":"\/hTxfw4af6EizpLM7tHKtoSlbdnu.jpg","original_language":"en","id":1407,"vote_average":7.3,"overview":"CIA officer Carrie Mathison is tops in her field despite being bipolar, which makes her volatile and unpredictable. With the help of her long-time mentor Saul Berenson, Carrie fearlessly risks everything, including her personal well-being and even sanity, at every turn.","poster_path":"\/lT8o38ubu9uzcjZbkDtwsVizDeQ.jpg"},{"original_name":"Doctor Who","genre_ids":[18,10759,10765],"name":"Doctor Who","popularity":82.934571,"origin_country":["GB"],"vote_count":1073,"first_air_date":"2005-03-26","backdrop_path":"\/tQkigP2fItdzJWvtIhBvHxgs5yE.jpg","original_language":"en","id":57243,"vote_average":6.9,"overview":"The Doctor looks and seems human. He's handsome, witty, and could be mistaken for just another man in the street. But he is a Time Lord: a 900 year old alien with 2 hearts, part of a gifted civilization who mastered time travel. The Doctor saves planets for a living – more of a hobby actually, and he's very, very good at it. He's saved us from alien menaces and evil from before time began – but just who is he?","poster_path":"\/74pYAFmEhj2DuoUeUF91CbLpXSd.jpg"},{"original_name":"Friends","genre_ids":[35],"name":"Friends","popularity":81.369652,"origin_country":["US"],"vote_count":1098,"first_air_date":"1994-09-22","backdrop_path":"\/efiX8iir6GEBWCD0uCFIi5NAyYA.jpg","original_language":"en","id":1668,"vote_average":7.8,"overview":"The misadventures of a group of friends as they navigate the pitfalls of work, life and love in Manhattan.","poster_path":"\/7buCWBTpiPrCF5Lt023dSC60rgS.jpg"},{"original_name":"Modern Family","genre_ids":[35],"name":"Modern Family","popularity":76.621572,"origin_country":["US"],"vote_count":624,"first_air_date":"2009-09-23","backdrop_path":"\/snxFgPvHMcpW5f8Q3wu6uRRycww.jpg","original_language":"en","id":1421,"vote_average":7.3,"overview":"The Pritchett-Dunphy-Tucker clan is a wonderfully large and blended family. They give us an honest and often hilarious look into the sometimes warm, sometimes twisted, embrace of the modern family.","poster_path":"\/gLAcu4VPCAb90oJvJ4nUJc5ZBQi.jpg"}]}